Geography 13
…
## MULTILINESTRING ((2014802 727969.6, 2019874 725...

bordercities

## Simple feature collection with 27620 features and 15 fields
## Geometry type: POINT
## Dimension:     XY
## Bounding box:  xmin: -2224960 ymin: -1601803 xmax: 2115970 ymax: 1275643
## CRS:           +proj=eqdc +lat_0=40 +lon_0=-96 +lat_1=20 +lat_2=60 +x_0=0 +y_0=0 +datum=NAD83 +units=m +no_defs
## # A tibble: 27,620 x 16
##    city    city_ascii  state_id state_name   county_fips county_name  population
##  * <chr>   <chr>       <chr>    <chr>        <chr>       <chr>             <dbl>
##  1 New Yo… New York    NY       New York     36061       New York       18713220
##  2 Los An… Los Angeles CA       California   06037       Los Angeles    12750807
##  3 Chicago Chicago     IL       Illinois     17031       Cook            8604203
##  4 Miami   Miami       FL       Florida      12086       Miami-Dade      6445545
##  5 Dallas  Dallas      TX       Texas        48113       Dallas          5743938
##  6 Philad… Philadelph… PA       Pennsylvania 42101       Philadelphia    5649300
##  7 Houston Houston     TX       Texas        48201       Harris          5464251
##  8 Atlanta Atlanta     GA       Georgia      13121       Fulton          5449398
##  9 Washin… Washington  DC       District of… 11001       District of…    5379184
## 10 Boston  Boston      MA       Massachuset… 25025       Suffolk         4688346
## # … with 27,610 more rows, and 9 more variables: density <dbl>, source <chr>,
## #   military <lgl>, incorporated <lgl>, timezone <chr>, ranking <dbl>,
## #   zips <chr>, id <dbl>, geometry <POINT [m]>
…
